G21         ; Set units to mm
G90         ; Absolute positioning
G1 Z2.54 F2540      ; Move to clearance level

;
; Operation:    0
; Name:         
; Type:         Outside
; Paths:        1
; Direction:    Conventional
; Cut Depth:    3.175
; Pass Depth:   3.175
; Plunge rate:  127
; Cut rate:     1016
;

; Path 0
; Rapid to initial position
G1 X77.7778 Y0.7937 F2540
G1 Z0.0000
; plunge
G1 Z-3.1750 F127
; cut
G1 X77.6882 Y0.7907 F1016
G1 X77.5988 Y0.7826
G1 X77.5099 Y0.7694
G1 X77.4220 Y0.7511
G1 X77.3351 Y0.7280
G1 X77.2500 Y0.7000
G1 X77.1662 Y0.6673
G1 X77.0847 Y0.6297
G1 X77.0054 Y0.5878
G1 X76.9285 Y0.5413
G1 X76.8543 Y0.4905
G1 X-0.2045 Y-55.4960
G1 X-0.2903 Y-55.5630
G1 X-0.3574 Y-55.6224
G1 X-0.4211 Y-55.6857
G1 X-0.4813 Y-55.7525
G1 X-0.5375 Y-55.8226
G1 X-0.5895 Y-55.8957
G1 X-0.6375 Y-55.9717
G1 X-0.6810 Y-56.0502
G1 X-0.7201 Y-56.1310
G1 X-0.7544 Y-56.2140
G1 X-0.7841 Y-56.2988
G1 X-0.8087 Y-56.3850
G1 X-0.8288 Y-56.4726
G1 X-0.8435 Y-56.5612
G1 X-0.8534 Y-56.6504
G1 X-0.8583 Y-56.7400
G1 X-0.8580 Y-56.8300
G1 X-0.8527 Y-56.9196
G1 X-0.8423 Y-57.0088
G1 X-0.8268 Y-57.0972
G1 X-0.8065 Y-57.1845
G1 X-0.7811 Y-57.2706
G1 X28.6527 Y-147.8590
G1 X28.6898 Y-147.9616
G1 X28.7259 Y-148.0439
G1 X28.7663 Y-148.1239
G1 X28.8112 Y-148.2016
G1 X28.8605 Y-148.2768
G1 X28.9138 Y-148.3490
G1 X28.9712 Y-148.4180
G1 X29.0327 Y-148.4836
G1 X29.0975 Y-148.5458
G1 X29.1658 Y-148.6040
G1 X29.2372 Y-148.6583
G1 X29.3116 Y-148.7086
G1 X29.3888 Y-148.7546
G1 X29.4683 Y-148.7962
G1 X29.5501 Y-148.8331
G1 X29.6339 Y-148.8653
G1 X29.7195 Y-148.8930
G1 X29.8064 Y-148.9156
G1 X29.8943 Y-148.9332
G1 X29.9832 Y-148.9459
G1 X30.0728 Y-148.9535
G1 X30.1625 Y-148.9560
G1 X125.4125 Y-148.9560
G1 X125.5215 Y-148.9522
G1 X125.6109 Y-148.9436
G1 X125.6995 Y-148.9299
G1 X125.7874 Y-148.9111
G1 X125.8740 Y-148.8874
G1 X125.9591 Y-148.8590
G1 X126.0424 Y-148.8257
G1 X126.1240 Y-148.7876
G1 X126.2029 Y-148.7452
G1 X126.2797 Y-148.6982
G1 X126.3533 Y-148.6472
G1 X126.4242 Y-148.5920
G1 X126.4917 Y-148.5328
G1 X126.5558 Y-148.4699
G1 X126.6162 Y-148.4036
G1 X126.6728 Y-148.3337
G1 X126.7254 Y-148.2611
G1 X126.7737 Y-148.1854
G1 X126.8179 Y-148.1071
G1 X126.8573 Y-148.0264
G1 X126.8920 Y-147.9436
G1 X126.9223 Y-147.8590
G1 X156.3561 Y-57.2706
G1 X156.3863 Y-57.1660
G1 X156.4056 Y-57.0784
G1 X156.4198 Y-56.9897
G1 X156.4292 Y-56.9003
G1 X156.4335 Y-56.8107
G1 X156.4328 Y-56.7210
G1 X156.4267 Y-56.6313
G1 X156.4157 Y-56.5422
G1 X156.3997 Y-56.4538
G1 X156.3789 Y-56.3664
G1 X156.3530 Y-56.2806
G1 X156.3225 Y-56.1960
G1 X156.2870 Y-56.1137
G1 X156.2471 Y-56.0332
G1 X156.2026 Y-55.9552
G1 X156.1539 Y-55.8797
G1 X156.1008 Y-55.8074
G1 X156.0436 Y-55.7380
G1 X155.9829 Y-55.6720
G1 X155.9184 Y-55.6095
G1 X155.8506 Y-55.5506
G1 X155.7795 Y-55.4960
G1 X78.7207 Y0.4905
G1 X78.6303 Y0.5514
G1 X78.5528 Y0.5972
G1 X78.4730 Y0.6380
G1 X78.3910 Y0.6746
G1 X78.3069 Y0.7064
G1 X78.2213 Y0.7333
G1 X78.1342 Y0.7554
G1 X78.0461 Y0.7724
G1 X77.9572 Y0.7846
G1 X77.8678 Y0.7917
G1 X77.7778 Y0.7937
; Retract
G1 Z2.5400 F2540
M2
