M3S0
G90
G21
G1 F2000
G1  X6.7159 Y4.5182
M3 S40
G4 P0.5
G1 F2000.000000
G1  X6.7323 Y4.6483 F2000.000000
G1  X6.6878 Y4.7722 
G1  X6.7129 Y4.8065 
G1  X6.8358 Y4.7307 
G3 X6.9905 Y4.5869 I0.9384 J0.8539
G1  X7.0395 Y4.5707 
G1  X7.1751 Y4.6165 
G3 X7.4411 Y4.8588 I-0.9017 J1.2568
G3 X7.5846 Y5.1856 I-0.4535 J0.394
G3 X7.5546 Y5.8658 I-2.1739 J0.245
G2 X7.5013 Y6.2776 I2.8545 J0.5795
G1  X7.5254 Y6.3723 
G1  X7.5648 Y6.5583 
G3 X7.4724 Y6.7448 I-0.3292 J-0.0469
G2 X7.2967 Y7.0008 I0.6279 J0.6191
G1  X7.2819 Y7.1663 
G1  X7.2608 Y7.2521 
G3 X7.0435 Y7.4328 I-0.7184 J-0.6426
G3 X6.7756 Y7.5879 I-3.6821 J-6.0492
G3 X6.6372 Y7.6563 I-0.848 J-1.5411
G3 X6.4202 Y7.682 I-0.1504 J-0.341
G1  X6.4074 Y7.6146 
G2 X6.6453 Y7.4308 I-0.76 J-1.2297
G2 X6.8305 Y7.2108 I-0.9128 J-0.9567
G1  X6.8667 Y7.1
G2 X6.8421 Y6.9243 I-0.4962 J-0.0201
G3 X6.8163 Y6.7431 I0.4921 J-0.1624
G3 X6.8585 Y6.4732 I1.1537 J0.0419
G2 X6.8736 Y6.0699 I-0.8303 J-0.233
G2 X6.7151 Y5.7612 I-0.6252 J0.1259
G2 X6.344 Y5.4809 I-0.982 J0.9145
G2 X6.0093 Y5.4003 I-0.3347 J0.6546
G3 X5.7504 Y5.3472 I-0. J-0.657
G3 X5.4913 Y5.1782 I0.3545 J-0.8268
G1  X5.3941 Y5.1283 
G1  X5.3643 Y5.1527 
G1  X5.5049 Y5.3982 
G2 X6.0226 Y5.5389 I0.5177 J-0.8825
G3 X6.2561 Y5.5801 I0. J0.6822
G3 X6.4556 Y5.6966 I-0.2217 J0.6085
G3 X6.6199 Y5.8693 I-0.7586 J0.8862
G3 X6.727 Y6.0477 I-0.7037 J0.5441
G3 X6.7702 Y6.2429 I-0.4453 J0.2008
G3 X6.7319 Y6.4728 I-0.6642 J0.0076
G2 X6.6788 Y6.7079 I0.9551 J0.3392
G2 X6.6805 Y6.9706 I1.1986 J0.1238
G3 X6.6692 Y7.2214 I-0.7793 J0.0905
G1  X6.6036 Y7.3392 
G3 X6.3127 Y7.5583 I-1.0981 J-1.1552
G3 X5.8072 Y7.8069 I-1.9311 J-3.288
G1  X5.7422 Y7.9048 
G1  X5.8095 Y7.9626 
G2 X6.4062 Y7.8332 I-0.5531 J-3.9929
G2 X6.9245 Y7.6308 I-0.9551 J-3.2092
G2 X7.3356 Y7.3322 I-0.6511 J-1.3288
G2 X7.4687 Y7.0697 I-0.3563 J-0.3456
G3 X7.514 Y6.9081 I0.7897 J0.1341
G3 X7.5853 Y6.7761 I0.5949 J0.2364
G2 X7.6943 Y6.4824 I-0.5021 J-0.3533
G1  X7.6272 Y6.347 
G1  X7.5702 Y6.2394 
G3 X7.649 Y5.839 I1.3507 J0.0579
G2 X7.6983 Y5.6512 I-1.0269 J-0.3699
G2 X7.7175 Y5.4338 I-1.3596 J-0.2301
G3 X7.7619 Y5.2426 I0.4523 J0.0041
G1  X7.8466 Y5.1643 
G3 X7.9767 Y5.135 I0.164 J0.4251
G3 X8.2793 Y5.132 I0.1748 J2.3413
G3 X8.5743 Y5.1826 I-0.0706 J1.2967
G3 X8.8103 Y5.2878 I-0.2726 J0.9289
G3 X9.0487 Y5.5583 I-0.3256 J0.5272
G3 X9.1664 Y6.0699 I-1.196 J0.5445
G3 X9.0865 Y6.5277 I-1.1816 J0.0295
G3 X8.9138 Y6.7198 I-0.3405 J-0.1323
G1  X8.811 Y6.8475 
G1  X8.8355 Y7.0116 
G1  X8.823 Y7.2199 
G3 X8.3847 Y7.5708 I-1.0148 J-0.818
G2 X8.0602 Y7.7382 I4.4431 J9.0096
G2 X7.9409 Y7.8101 I0.6947 J1.2884
G3 X7.5122 Y8.016 I-0.9348 J-1.3969
G3 X7.2 Y8.0441 I-0.2198 J-0.6962
G1  X7.1788 Y8.0883 
G2 X7.3582 Y8.197 I0.3282 J-0.3395
G2 X8.0166 Y8.2979 I0.6254 J-1.8829
G2 X8.3638 Y8.1802 I-0.01 J-0.6007
G3 X8.4927 Y8.095 I0.8795 J1.1896
G3 X8.8782 Y7.8774 I6.1581 J10.4588
G2 X9.5024 Y7.4466 I-1.6667 J-3.0826
G2 X9.6381 Y7.2209 I-0.2761 J-0.3196
G3 X9.6755 Y7.088 I1.3311 J0.3036
G3 X9.7813 Y6.7965 I6.524 J2.2015